{"failedCount":0,"prefixedPath":"classpath:karateapi\/userDetails.feature","packageQualifiedName":"karateapi.userDetails","loopIndex":-1,"relativePath":"karateapi\/userDetails.feature","scenarioResults":[{"sectionIndex":0,"stepResults":[{"result":{"nanos":728300,"startTime":1727885844954,"endTime":1727885844955,"millis":0.7283,"status":"passed"},"step":{"line":4,"prefix":"Given","index":0,"text":"url 'https:\/\/reqres.in\/api\/users\/2'"}},{"result":{"nanos":376115600,"startTime":1727885844955,"endTime":1727885845331,"millis":376.1156,"status":"passed"},"step":{"line":5,"prefix":"When","index":1,"text":"method GET"},"stepLog":"11:17:24.961 request:\n1 > GET https:\/\/reqres.in\/api\/users\/2\n1 > Host: reqres.in\n1 > Connection: Keep-Alive\n1 > User-Agent: Apache-HttpClient\/4.5.11 (Java\/21.0.4)\n1 > Accept-Encoding: gzip,deflate\n\n\n11:17:25.328 response time in milliseconds: 364\n1 < 200\n1 < Date: Wed, 02 Oct 2024 16:17:26 GMT\n1 < Content-Type: application\/json; charset=utf-8\n1 < Transfer-Encoding: chunked\n1 < Connection: keep-alive\n1 < Report-To: {\"group\":\"heroku-nel\",\"max_age\":3600,\"endpoints\":[{\"url\":\"https:\/\/nel.heroku.com\/reports?ts=1727821380&sid=c4c9725f-1ab0-44d8-820f-430df2718e11&s=qL%2FIXYaMNNsM3%2B%2FnPoqTB24tc8TmjGJUXobtL%2FeGNhg%3D\"}]}\n1 < Reporting-Endpoints: heroku-nel=https:\/\/nel.heroku.com\/reports?ts=1727821380&sid=c4c9725f-1ab0-44d8-820f-430df2718e11&s=qL%2FIXYaMNNsM3%2B%2FnPoqTB24tc8TmjGJUXobtL%2FeGNhg%3D\n1 < Nel: {\"report_to\":\"heroku-nel\",\"max_age\":3600,\"success_fraction\":0.005,\"failure_fraction\":0.05,\"response_headers\":[\"Via\"]}\n1 < X-Powered-By: Express\n1 < Access-Control-Allow-Origin: *\n1 < Etag: W\/\"118-pbdwwFo9SKNhD3Lx5iHJyngpq00\"\n1 < Via: 1.1 vegur\n1 < Cache-Control: max-age=14400\n1 < CF-Cache-Status: HIT\n1 < Age: 3279\n1 < Vary: Accept-Encoding\n1 < Server: cloudflare\n1 < CF-RAY: 8cc600aa9bfb13f5-ORD\n{\"data\":{\"id\":2,\"email\":\"janet.weaver@reqres.in\",\"first_name\":\"Janet\",\"last_name\":\"Weaver\",\"avatar\":\"https:\/\/reqres.in\/img\/faces\/2-image.jpg\"},\"support\":{\"url\":\"https:\/\/reqres.in\/#support-heading\",\"text\":\"To keep ReqRes free, contributions towards server costs are appreciated!\"}}\n\n"},{"result":{"nanos":16800,"startTime":1727885845331,"endTime":1727885845331,"millis":0.0168,"status":"passed"},"step":{"line":6,"prefix":"Then","index":2,"text":"status 200"}},{"result":{"nanos":45558000,"startTime":1727885845331,"endTime":1727885845377,"millis":45.558,"status":"passed"},"step":{"line":7,"prefix":"*","index":3,"text":"match response.data.id == 2"}},{"result":{"nanos":1652300,"startTime":1727885845377,"endTime":1727885845379,"millis":1.6523,"status":"passed"},"step":{"line":8,"prefix":"*","index":4,"text":"match response.data.email == 'janet.weaver@reqres.in'"}},{"result":{"nanos":39977400,"startTime":1727885845379,"endTime":1727885845419,"millis":39.9774,"status":"passed"},"step":{"comments":["#We are printing the Response of the API using the print keyword#"],"line":10,"prefix":"Then","index":5,"text":"print response"},"stepLog":"11:17:25.418 [print] {\n  \"data\": {\n    \"id\": 2,\n    \"email\": \"janet.weaver@reqres.in\",\n    \"first_name\": \"Janet\",\n    \"last_name\": \"Weaver\",\n    \"avatar\": \"https:\/\/reqres.in\/img\/faces\/2-image.jpg\"\n  },\n  \"support\": {\n    \"url\": \"https:\/\/reqres.in\/#support-heading\",\n    \"text\": \"To keep ReqRes free, contributions towards server costs are appreciated!\"\n  }\n}\n \n"}],"executorName":"main","line":2,"name":"testing the get one User Details","description":"","durationMillis":464.0484,"startTime":1727885844954,"failed":false,"refId":"[1:2]","endTime":1727885845419,"exampleIndex":-1},{"sectionIndex":1,"stepResults":[{"result":{"nanos":639800,"startTime":1727885845431,"endTime":1727885845432,"millis":0.6398,"status":"passed"},"step":{"line":13,"prefix":"Given","index":0,"text":"url 'https:\/\/reqres.in\/api\/users'"}},{"result":{"nanos":147270300,"startTime":1727885845432,"endTime":1727885845579,"millis":147.2703,"status":"passed"},"step":{"line":14,"prefix":"When","index":1,"text":"method GET"},"stepLog":"11:17:25.434 request:\n1 > GET https:\/\/reqres.in\/api\/users\n1 > Host: reqres.in\n1 > Connection: Keep-Alive\n1 > User-Agent: Apache-HttpClient\/4.5.11 (Java\/21.0.4)\n1 > Accept-Encoding: gzip,deflate\n\n\n11:17:25.576 response time in milliseconds: 139\n1 < 200\n1 < Date: Wed, 02 Oct 2024 16:17:26 GMT\n1 < Content-Type: application\/json; charset=utf-8\n1 < Transfer-Encoding: chunked\n1 < Connection: keep-alive\n1 < Report-To: {\"group\":\"heroku-nel\",\"max_age\":3600,\"endpoints\":[{\"url\":\"https:\/\/nel.heroku.com\/reports?ts=1727883757&sid=c4c9725f-1ab0-44d8-820f-430df2718e11&s=EJXEWVdiqKe6vBV6VqtVKAen9yhyyBBaLxOKN%2BWZyQI%3D\"}]}\n1 < Reporting-Endpoints: heroku-nel=https:\/\/nel.heroku.com\/reports?ts=1727883757&sid=c4c9725f-1ab0-44d8-820f-430df2718e11&s=EJXEWVdiqKe6vBV6VqtVKAen9yhyyBBaLxOKN%2BWZyQI%3D\n1 < Nel: {\"report_to\":\"heroku-nel\",\"max_age\":3600,\"success_fraction\":0.005,\"failure_fraction\":0.05,\"response_headers\":[\"Via\"]}\n1 < X-Powered-By: Express\n1 < Access-Control-Allow-Origin: *\n1 < Etag: W\/\"3e4-2RLXvr5wTg9YQ6aH95CkYoFNuO8\"\n1 < Via: 1.1 vegur\n1 < Cache-Control: max-age=14400\n1 < CF-Cache-Status: HIT\n1 < Age: 2089\n1 < Vary: Accept-Encoding\n1 < Server: cloudflare\n1 < CF-RAY: 8cc600ac282661d6-ORD\n{\"page\":1,\"per_page\":6,\"total\":12,\"total_pages\":2,\"data\":[{\"id\":1,\"email\":\"george.bluth@reqres.in\",\"first_name\":\"George\",\"last_name\":\"Bluth\",\"avatar\":\"https:\/\/reqres.in\/img\/faces\/1-image.jpg\"},{\"id\":2,\"email\":\"janet.weaver@reqres.in\",\"first_name\":\"Janet\",\"last_name\":\"Weaver\",\"avatar\":\"https:\/\/reqres.in\/img\/faces\/2-image.jpg\"},{\"id\":3,\"email\":\"emma.wong@reqres.in\",\"first_name\":\"Emma\",\"last_name\":\"Wong\",\"avatar\":\"https:\/\/reqres.in\/img\/faces\/3-image.jpg\"},{\"id\":4,\"email\":\"eve.holt@reqres.in\",\"first_name\":\"Eve\",\"last_name\":\"Holt\",\"avatar\":\"https:\/\/reqres.in\/img\/faces\/4-image.jpg\"},{\"id\":5,\"email\":\"charles.morris@reqres.in\",\"first_name\":\"Charles\",\"last_name\":\"Morris\",\"avatar\":\"https:\/\/reqres.in\/img\/faces\/5-image.jpg\"},{\"id\":6,\"email\":\"tracey.ramos@reqres.in\",\"first_name\":\"Tracey\",\"last_name\":\"Ramos\",\"avatar\":\"https:\/\/reqres.in\/img\/faces\/6-image.jpg\"}],\"support\":{\"url\":\"https:\/\/reqres.in\/#support-heading\",\"text\":\"To keep ReqRes free, contributions towards server costs are appreciated!\"}}\n\n"},{"result":{"nanos":18800,"startTime":1727885845580,"endTime":1727885845580,"millis":0.0188,"status":"passed"},"step":{"line":15,"prefix":"Then","index":2,"text":"status 200"}},{"result":{"nanos":3800700,"startTime":1727885845580,"endTime":1727885845584,"millis":3.8007,"status":"passed"},"step":{"line":16,"prefix":"*","index":3,"text":"match response.per_page == 6"}},{"result":{"nanos":4236800,"startTime":1727885845584,"endTime":1727885845588,"millis":4.2368,"status":"passed"},"step":{"line":17,"prefix":"*","index":4,"text":"match response.data[0].id == 1"}},{"result":{"nanos":2201900,"startTime":1727885845588,"endTime":1727885845590,"millis":2.2019,"status":"passed"},"step":{"line":18,"prefix":"*","index":5,"text":"match response.data[0].email == \"george.bluth@reqres.in\""}},{"result":{"nanos":4134000,"startTime":1727885845592,"endTime":1727885845596,"millis":4.134,"status":"passed"},"step":{"line":19,"prefix":"*","index":6,"text":"match response.data[*].id contains [1,2,3,4,5,6]"}},{"result":{"nanos":14020300,"startTime":1727885845597,"endTime":1727885845611,"millis":14.0203,"status":"passed"},"step":{"comments":["#Reading the file ExpectedOutput.json and storing same response in variable expectedResult"],"line":22,"prefix":"Given","index":7,"text":"expectedResult=read('.\/users.json')"}},{"result":{"nanos":1535800,"startTime":1727885845611,"endTime":1727885845613,"millis":1.5358,"status":"passed"},"step":{"comments":["#Asserting the Actual Response with the Expected Response"],"line":24,"prefix":"And","index":8,"text":"match response == expectedResult"}}],"executorName":"main","line":12,"name":"testing the get ALL User Details","description":"","durationMillis":177.8584,"startTime":1727885845431,"failed":false,"refId":"[2:12]","endTime":1727885845612,"exampleIndex":-1}],"callDepth":0,"name":"fetching User Details","description":"","resultDate":"2024-10-02 11:17:25 AM","durationMillis":641.9068,"passedCount":2}